<?xml version="1.0" encoding="utf-8"?>
<!-- Generator: Adobe Illustrator 16.0.0, SVG Export Plug-In . SVG Version: 6.00 Build 0)  -->
<!DOCTYPE svg PUBLIC "-//W3C//DTD SVG 1.1//EN" "http://www.w3.org/Graphics/SVG/1.1/DTD/svg11.dtd">
<svg version="1.1" id="icons" xmlns="http://www.w3.org/2000/svg" xmlns:xlink="http://www.w3.org/1999/xlink" x="0px" y="0px"
	 width="64px" height="64px" viewBox="0 0 64 64" enable-background="new 0 0 64 64" xml:space="preserve">
<g>
	<path d="M57,12H6.002c-3.305,0-5.992,2.685-5.999,5.987C0.003,17.991,0,17.995,0,18v24v5c0,0.232,0.092,0.437,0.225,0.606
		C0.93,50.137,3.248,52,6,52h51c3.859,0,7-3.141,7-7v-4V19C64,15.141,60.859,12,57,12z M8.002,46V14H54v32H8.002z M6.002,14v32H6
		c-2.206,0-4-1.794-4-4V18.01c0-0.004,0.002-0.006,0.002-0.01C2.002,15.794,3.796,14,6.002,14z M57,50H6
		c-2.033,0-3.697-1.528-3.949-3.494C3.107,47.433,4.487,48,6,48h51c1.906,0,3.636-0.769,4.9-2.01C61.438,48.274,59.418,50,57,50z
		 M62,30v11c0,2.757-2.243,5-5,5h-1V30V14h1c2.757,0,5,2.243,5,5V30z"/>
	<path d="M4.03,32H4.02c-0.552,0-0.994,0.447-0.994,1s0.452,1,1.005,1c0.552,0,1-0.447,1-1S4.582,32,4.03,32z"/>
	<path d="M4,31c0.553,0,1-0.447,1-1v-3c0-0.553-0.447-1-1-1s-1,0.447-1,1v3C3,30.553,3.447,31,4,31z"/>
	<path d="M59,27c-1.654,0-3,1.346-3,3s1.346,3,3,3s3-1.346,3-3S60.654,27,59,27z M59,31c-0.552,0-1-0.448-1-1s0.448-1,1-1
		s1,0.448,1,1S59.552,31,59,31z"/>
	<path d="M46.028,23c-3.309,0-6,2.692-6,6.001c0,4.696,5.282,7.742,5.507,7.869c0.153,0.087,0.323,0.13,0.493,0.13
		s0.34-0.043,0.493-0.13c0.225-0.127,5.507-3.173,5.507-7.869C52.028,25.692,49.337,23,46.028,23z M46.027,34.816
		c-1.168-0.788-3.999-2.988-3.999-5.815c0-2.206,1.794-4.001,4-4.001s4,1.795,4,4.001C50.028,31.815,47.194,34.025,46.027,34.816z"
		/>
	<path d="M46.029,26.003c-1.654,0-3,1.346-3,3s1.346,3,3,3s3-1.346,3-3S47.684,26.003,46.029,26.003z M46.029,30.003
		c-0.552,0-1-0.448-1-1s0.448-1,1-1s1,0.448,1,1S46.581,30.003,46.029,30.003z"/>
	<path d="M20,37.004c1.104,0,2.001-0.897,2.001-2.001V27c0-0.553-0.447-1-1-1H19v-1c0-1.654-1.346-3-3-3s-3,1.346-3,3v1h-1.999
		c-0.553,0-1,0.447-1,1v8.003c0,1.103,0.896,1.999,1.999,1.999h7.99C19.994,37.002,19.996,37.004,20,37.004z M16,24
		c0.552,0,1,0.448,1,1v1h-2v-1C15,24.448,15.448,24,16,24z M20.001,28v6.999C20.001,35,20,35.001,20,35.002l0,0h-7.999V28H20.001z"
		/>
	<path d="M46.028,38.001c-0.553,0-1,0.447-1,1v3h-6.362C38.875,41.557,39,41.065,39,40.543c0-1.649-1.163-3.028-2.711-3.371
		l-1.341-3.989c-0.004-0.013-0.015-0.021-0.019-0.033c-0.026-0.068-0.068-0.125-0.107-0.186c-0.032-0.049-0.058-0.103-0.098-0.145
		c-0.045-0.048-0.102-0.08-0.155-0.118c-0.051-0.036-0.096-0.077-0.152-0.104c-0.055-0.024-0.115-0.032-0.175-0.048
		c-0.068-0.018-0.133-0.038-0.205-0.041c-0.013-0.001-0.023-0.008-0.037-0.008h-2c-0.553,0-1,0.447-1,1s0.447,1,1,1h1.281l0.84,2.5
		H31v-0.5c0.553,0,1-0.447,1-1s-0.447-1-1-1h-2c-0.553,0-1,0.447-1,1s0.447,1,1,1v0.5h-1.5c-1.93,0-3.5,1.57-3.5,3.5
		c0,0.539,0.133,1.044,0.352,1.5h-7.351V39c0-0.553-0.447-1-1-1s-1,0.447-1,1v4.001c0,0.553,0.447,1,1,1h19.53
		c0.004,0,0.007,0.001,0.01,0.001s0.006-0.001,0.01-0.001h10.473c0.002,0,0.003,0.001,0.005,0.001c0.553,0,1-0.447,1-1v-4.001
		C47.028,38.448,46.581,38.001,46.028,38.001z M37,40.543c0,0.802-0.649,1.453-1.449,1.458h-0.02
		c-0.799-0.005-1.448-0.656-1.448-1.458c0-0.804,0.654-1.458,1.458-1.458C36.346,39.085,37,39.739,37,40.543z M32.261,39.501h-1.424
		c-0.052-0.173-0.111-0.34-0.188-0.5h1.813C32.382,39.161,32.316,39.328,32.261,39.501z M30.837,41.501h1.397
		c0.051,0.172,0.107,0.34,0.182,0.5h-1.768C30.726,41.841,30.785,41.674,30.837,41.501z M26,40.501c0-0.827,0.673-1.5,1.5-1.5
		s1.5,0.673,1.5,1.5s-0.673,1.5-1.5,1.5S26,41.328,26,40.501z"/>
	<path d="M31,28c3.309,0,6.001-2.692,6.001-6.001S34.309,15.998,31,15.998s-6.001,2.692-6.001,6.001S27.691,28,31,28z M31,17.998
		c2.206,0,4.001,1.795,4.001,4.001S33.206,26,31,26s-4.001-1.795-4.001-4.001S28.794,17.998,31,17.998z"/>
	<path d="M30.294,22.707l1.412,1.412c0.195,0.195,0.451,0.293,0.707,0.293s0.512-0.098,0.707-0.293c0.391-0.391,0.391-1.023,0-1.414
		L32,21.585V20c0-0.553-0.447-1-1-1s-1,0.447-1,1v1.999c0,0.13,0.026,0.26,0.077,0.382C30.128,22.504,30.201,22.615,30.294,22.707z"
		/>
</g>
</svg>
