<?xml version="1.0" encoding="utf-8"?>
<!-- Generator: Adobe Illustrator 16.0.0, SVG Export Plug-In . SVG Version: 6.00 Build 0)  -->
<!DOCTYPE svg PUBLIC "-//W3C//DTD SVG 1.1//EN" "http://www.w3.org/Graphics/SVG/1.1/DTD/svg11.dtd">
<svg version="1.1" id="icons" xmlns="http://www.w3.org/2000/svg" xmlns:xlink="http://www.w3.org/1999/xlink" x="0px" y="0px"
	 width="64px" height="64px" viewBox="0 0 64 64" enable-background="new 0 0 64 64" xml:space="preserve">
<g>
	<path d="M1.999,37.498H1.001c-0.553,0-1,0.447-1,1v3c0,0.553,0.447,1,1,1h0.997v9.006c0,3.859,3.141,7,7,7h46.004
		c3.859,0,7-3.141,7-7v-9.006h0.997c0.553,0,1-0.447,1-1v-3c0-0.553-0.447-1-1-1h-0.996v-9.01c0-3.859-3.141-7-7-7H8.999
		c-3.859,0-7,3.141-7,7V37.498z M61.999,39.498v1h-0.978c-0.007,0-0.013-0.004-0.02-0.004s-0.013,0.004-0.02,0.004H3.018
		c-0.007,0-0.013-0.004-0.02-0.004s-0.013,0.004-0.02,0.004H2.001v-1H61.999z M60.002,51.504c0,2.757-2.243,5-5,5H8.998
		c-2.757,0-5-2.243-5-5v-9.006h56.004V51.504z M8.999,23.488h46.004c2.757,0,5,2.243,5,5v9.01H3.999v-9.01
		C3.999,25.731,6.242,23.488,8.999,23.488z"/>
	<path d="M32,35.497c2.757,0,5-2.243,5-5s-2.243-5-5-5s-5,2.243-5,5S29.243,35.497,32,35.497z M32,27.497c1.654,0,3,1.346,3,3
		s-1.346,3-3,3s-3-1.346-3-3S30.346,27.497,32,27.497z"/>
	<path d="M39,29.998h6.001c0.553,0,1-0.447,1-1s-0.447-1-1-1H39c-0.553,0-1,0.447-1,1S38.447,29.998,39,29.998z"/>
	<path d="M39,32.997h6.001c0.553,0,1-0.447,1-1s-0.447-1-1-1H39c-0.553,0-1,0.447-1,1S38.447,32.997,39,32.997z"/>
	<path d="M19.999,48.5H44c0.553,0,1-0.447,1-1s-0.447-1-1-1H19.999c-0.553,0-1,0.447-1,1S19.446,48.5,19.999,48.5z"/>
	<path d="M38,49.5H25.999c-0.553,0-1,0.447-1,1s0.447,1,1,1H38c0.553,0,1-0.447,1-1S38.553,49.5,38,49.5z"/>
	<path d="M19,29.998h6.001c0.553,0,1-0.447,1-1s-0.447-1-1-1H19c-0.553,0-1,0.447-1,1S18.447,29.998,19,29.998z"/>
	<path d="M19,32.997h6.001c0.553,0,1-0.447,1-1s-0.447-1-1-1H19c-0.553,0-1,0.447-1,1S18.447,32.997,19,32.997z"/>
	<path d="M32.03,31.497c0.552,0,1-0.447,1-1s-0.448-1-1-1H32.02c-0.552,0-0.994,0.447-0.994,1S31.478,31.497,32.03,31.497z"/>
	<path d="M11.291,19.203c0.195,0.195,0.451,0.293,0.707,0.293s0.512-0.098,0.707-0.293c0.103-0.103,2.483-2.563,0.188-7.154
		c-1.606-3.213-0.258-4.768-0.177-4.856c0.38-0.392,0.376-1.017-0.011-1.403c-0.391-0.391-1.023-0.391-1.414,0
		c-0.103,0.103-2.483,2.563-0.188,7.154c1.62,3.24,0.234,4.794,0.188,4.846C10.9,18.18,10.9,18.813,11.291,19.203z"/>
	<path d="M21.292,19.203c0.195,0.195,0.451,0.293,0.707,0.293s0.512-0.098,0.707-0.293c0.103-0.103,2.483-2.563,0.188-7.154
		c-1.606-3.213-0.258-4.768-0.177-4.856c0.38-0.392,0.376-1.017-0.011-1.403c-0.391-0.391-1.023-0.391-1.414,0
		c-0.103,0.103-2.483,2.563-0.188,7.154c1.62,3.24,0.234,4.794,0.188,4.846C20.901,18.18,20.901,18.813,21.292,19.203z"/>
	<path d="M31.293,19.203c0.195,0.195,0.451,0.293,0.707,0.293s0.512-0.098,0.707-0.293c0.103-0.103,2.483-2.563,0.188-7.154
		c-1.606-3.213-0.258-4.768-0.177-4.856c0.38-0.392,0.376-1.017-0.011-1.403c-0.391-0.391-1.023-0.391-1.414,0
		c-0.103,0.103-2.483,2.563-0.188,7.154c1.62,3.24,0.234,4.794,0.188,4.846C30.902,18.18,30.902,18.813,31.293,19.203z"/>
	<path d="M41.294,19.203c0.195,0.195,0.451,0.293,0.707,0.293s0.512-0.098,0.707-0.293c0.103-0.103,2.483-2.563,0.188-7.154
		c-1.606-3.213-0.258-4.768-0.177-4.856c0.38-0.392,0.376-1.017-0.011-1.403c-0.391-0.391-1.023-0.391-1.414,0
		c-0.103,0.103-2.483,2.563-0.188,7.154c1.62,3.24,0.234,4.794,0.188,4.846C40.903,18.18,40.903,18.813,41.294,19.203z"/>
	<path d="M51.295,19.203c0.195,0.195,0.451,0.293,0.707,0.293s0.512-0.098,0.707-0.293c0.103-0.103,2.483-2.563,0.188-7.154
		c-1.606-3.213-0.258-4.768-0.177-4.856c0.38-0.392,0.376-1.017-0.011-1.403c-0.391-0.391-1.023-0.391-1.414,0
		c-0.103,0.103-2.483,2.563-0.188,7.154c1.62,3.24,0.234,4.794,0.188,4.846C50.904,18.18,50.904,18.813,51.295,19.203z"/>
</g>
</svg>
