<?xml version="1.0" encoding="utf-8"?>
<!-- Generator: Adobe Illustrator 16.0.0, SVG Export Plug-In . SVG Version: 6.00 Build 0)  -->
<!DOCTYPE svg PUBLIC "-//W3C//DTD SVG 1.1//EN" "http://www.w3.org/Graphics/SVG/1.1/DTD/svg11.dtd">
<svg version="1.1" id="icons" xmlns="http://www.w3.org/2000/svg" xmlns:xlink="http://www.w3.org/1999/xlink" x="0px" y="0px"
	 width="64px" height="64px" viewBox="0 0 64 64" enable-background="new 0 0 64 64" xml:space="preserve">
<g>
	<path d="M27.993,6.999H3c-1.654,0-3,1.346-3,3v15.995c0,1.651,1.341,2.994,2.99,2.999c0.004,0,0.006,0.002,0.01,0.002h24.993
		c1.654,0,3-1.346,3-3V9.999C30.993,8.345,29.647,6.999,27.993,6.999z M28.993,25.995c0,0.552-0.448,1-1,1H3.005
		c-0.002,0-0.003-0.001-0.005-0.001c-0.552,0-1-0.448-1-1V9.999c0-0.552,0.448-1,1-1h24.993c0.552,0,1,0.448,1,1V25.995z"/>
	<path d="M9.999,11.998H6c-1.103,0-2,0.897-2,2v1.898c-0.004,0.035-0.021,0.065-0.021,0.102S3.996,16.064,4,16.1v1.898
		c0,1.103,0.897,2,2,2h3.999c1.103,0,2-0.897,2-2v-4C11.999,12.896,11.102,11.998,9.999,11.998z M9.999,13.998l-0.001,1H6v-1H9.999z
		 M6,17.998v-1h3.997l-0.001,1H6z"/>
	<path d="M23.993,19.995c-0.771,0-1.468,0.301-2,0.78c-0.532-0.479-1.229-0.78-2-0.78c-1.654,0-3,1.346-3,3s1.346,3,3,3
		c0.771,0,1.468-0.301,2-0.78c0.532,0.479,1.229,0.78,2,0.78c1.654,0,3-1.346,3-3S25.647,19.995,23.993,19.995z M19.993,23.995
		c-0.552,0-1-0.448-1-1s0.448-1,1-1s1,0.448,1,1S20.545,23.995,19.993,23.995z M23.993,23.995c-0.552,0-1-0.448-1-1s0.448-1,1-1
		s1,0.448,1,1S24.545,23.995,23.993,23.995z"/>
	<path d="M16.999,14.998c0-0.553-0.447-1-1-1s-1,0.447-1,1v2c0,0.553,0.447,1,1,1s1-0.447,1-1V14.998z"/>
	<path d="M18.999,17.998c0.553,0,1-0.447,1-1v-2c0-0.553-0.447-1-1-1s-1,0.447-1,1v2C17.999,17.551,18.446,17.998,18.999,17.998z"/>
	<path d="M21.999,17.998c0.553,0,1-0.447,1-1v-2c0-0.553-0.447-1-1-1s-1,0.447-1,1v2C20.999,17.551,21.446,17.998,21.999,17.998z"/>
	<path d="M24.998,17.998c0.553,0,1-0.447,1-1v-2c0-0.553-0.447-1-1-1s-1,0.447-1,1v2C23.998,17.551,24.445,17.998,24.998,17.998z"/>
	<path d="M63,6.998H34c-0.553,0-1,0.447-1,1v3.985c0,0.007-0.004,0.013-0.004,0.02S33,12.016,33,12.022v12.972v3.004
		c0,0.553,0.447,1,1,1h29c0.553,0,1-0.447,1-1v-3.004V12.003V7.998C64,7.445,63.553,6.998,63,6.998z M38.898,23.994
		C38.5,22.038,36.956,20.495,35,20.098v-7.196c1.957-0.4,3.501-1.946,3.898-3.903h19.203c0.398,1.956,1.942,3.5,3.898,3.898v7.199
		c-1.956,0.398-3.5,1.942-3.898,3.898H38.898z M35,22.181c0.847,0.302,1.514,0.967,1.815,1.813H35V22.181z M62,22.179v1.815h-1.815
		C60.486,23.146,61.152,22.48,62,22.179z M62,10.813c-0.848-0.302-1.514-0.968-1.815-1.815H62V10.813z M36.816,8.998
		c-0.302,0.849-0.969,1.517-1.816,1.819V8.998H36.816z M35,26.998v-1.004h27v1.004H35z"/>
	<path d="M48.5,11.996c-2.481,0-4.5,2.019-4.5,4.5s2.019,4.5,4.5,4.5s4.5-2.019,4.5-4.5S50.981,11.996,48.5,11.996z M48.5,18.996
		c-1.379,0-2.5-1.121-2.5-2.5s1.121-2.5,2.5-2.5s2.5,1.121,2.5,2.5S49.879,18.996,48.5,18.996z"/>
	<path d="M31,41c-2.206,0-4,1.794-4,4c0,0.553,0.447,1,1,1s1-0.447,1-1c0-1.103,0.897-2,2-2s2,0.897,2,2
		c0,0.217-0.352,0.47-0.887,0.831C31.271,46.398,30,47.256,30,49c0,0.553,0.447,1,1,1s1-0.447,1-1c0-0.616,0.375-0.934,1.231-1.511
		C33.978,46.985,35,46.297,35,45C35,42.794,33.206,41,31,41z"/>
	<path d="M31.03,51H31.02c-0.552,0-0.994,0.447-0.994,1s0.452,1,1.005,1c0.552,0,1-0.447,1-1S31.582,51,31.03,51z"/>
	<path d="M40.949,46.002c-0.504-5.046-4.773-9-9.949-9s-9.445,3.954-9.949,9h-5.05V34.415l0.292,0.292
		C16.488,34.902,16.744,35,17,35s0.512-0.098,0.707-0.293c0.391-0.39,0.391-1.023,0-1.414l-1.998-2
		c-0.092-0.093-0.203-0.166-0.326-0.217c-0.244-0.102-0.52-0.102-0.764,0c-0.123,0.051-0.234,0.124-0.326,0.217l-2,2
		c-0.391,0.391-0.391,1.023,0,1.414C12.488,34.902,12.744,35,13,35s0.512-0.098,0.707-0.293l0.294-0.294v12.589c0,0.553,0.447,1,1,1
		h6.05c0.504,5.046,4.773,9,9.949,9s9.445-3.954,9.949-9h6.05c0.553,0,1-0.447,1-1V34.413l0.294,0.294
		C48.488,34.902,48.744,35,49,35s0.512-0.098,0.707-0.293c0.391-0.391,0.391-1.023,0-1.414l-2-2
		c-0.092-0.093-0.203-0.166-0.326-0.217c-0.244-0.102-0.52-0.102-0.764,0c-0.123,0.051-0.234,0.124-0.326,0.217l-1.998,2
		c-0.391,0.391-0.391,1.024,0,1.414C44.488,34.902,44.744,35,45,35s0.512-0.098,0.707-0.293l0.292-0.292v11.587H40.949z M31,55.002
		c-4.41,0-7.998-3.587-8-7.996c0-0.001,0.001-0.003,0.001-0.004S23,46.999,23,46.998c0.002-4.409,3.59-7.996,8-7.996
		s7.998,3.587,8,7.996c0,0.001-0.001,0.003-0.001,0.004S39,47.005,39,47.006C38.998,51.415,35.41,55.002,31,55.002z"/>
</g>
</svg>
