<?xml version="1.0" encoding="utf-8"?>
<!-- Generator: Adobe Illustrator 16.0.0, SVG Export Plug-In . SVG Version: 6.00 Build 0)  -->
<!DOCTYPE svg PUBLIC "-//W3C//DTD SVG 1.1//EN" "http://www.w3.org/Graphics/SVG/1.1/DTD/svg11.dtd">
<svg version="1.1" id="icons" xmlns="http://www.w3.org/2000/svg" xmlns:xlink="http://www.w3.org/1999/xlink" x="0px" y="0px"
	 width="64px" height="64px" viewBox="0 0 64 64" enable-background="new 0 0 64 64" xml:space="preserve">
<g>
	<path d="M29.03,5c0.552,0,1-0.448,1-1s-0.448-1-1-1H29.02c-0.552,0-0.994,0.448-0.994,1S28.478,5,29.03,5z"/>
	<path d="M32,5h3c0.553,0,1-0.448,1-1s-0.447-1-1-1h-3c-0.553,0-1,0.448-1,1S31.447,5,32,5z"/>
	<path d="M35,55c0-1.654-1.346-3-3-3s-3,1.346-3,3s1.346,3,3,3S35,56.654,35,55z M32,56c-0.552,0-1-0.448-1-1s0.448-1,1-1
		s1,0.448,1,1S32.552,56,32,56z"/>
	<path d="M4,44.001h10V57c0,3.859,3.141,7,7,7h22c3.859,0,7-3.141,7-7V30.999h10c0.553,0,1-0.448,1-1v-18c0-0.552-0.447-1-1-1H50
		V6.002c0-3.304-2.685-5.992-5.987-6C44.009,0.002,44.005,0,44,0H20c-3.309,0-6,2.691-6,6v12.996H4c-0.553,0-1,0.448-1,1v23.005
		C3,43.554,3.447,44.001,4,44.001z M48,53c0,2.757-2.243,5-5,5H32H21c-2.757,0-5-2.243-5-5v-1h16h16V53z M43,62H21
		c-2.418,0-4.438-1.726-4.9-4.01C17.364,59.231,19.094,60,21,60h22c1.906,0,3.636-0.769,4.9-2.01C47.438,60.274,45.418,62,43,62z
		 M59,28.999H41.001c-0.182,0-0.359,0.049-0.515,0.143L37,31.233V12.999h22V28.999z M20,2h23.99c0.004,0,0.006,0.002,0.01,0.002
		c2.206,0,4,1.794,4,4H16V6C16,3.794,17.794,2,20,2z M16,8.002h32v2.997H36c-0.553,0-1,0.448-1,1v21c0,0.36,0.193,0.692,0.507,0.87
		c0.153,0.087,0.323,0.13,0.493,0.13c0.178,0,0.356-0.048,0.515-0.143l4.764-2.857H48V50H16v-5.999h6.723l4.763,2.857
		c0.158,0.095,0.337,0.143,0.515,0.143c0.17,0,0.34-0.043,0.493-0.13c0.313-0.178,0.507-0.51,0.507-0.87V19.996c0-0.552-0.447-1-1-1
		H16V8.002z M5,20.996h22v23.239l-3.485-2.091c-0.155-0.094-0.333-0.143-0.515-0.143H5V20.996z"/>
	<path d="M40,16.999c0,0.552,0.447,1,1,1h14c0.553,0,1-0.448,1-1s-0.447-1-1-1H41C40.447,15.999,40,16.447,40,16.999z"/>
	<path d="M55,19.999H41c-0.553,0-1,0.448-1,1s0.447,1,1,1h14c0.553,0,1-0.448,1-1S55.553,19.999,55,19.999z"/>
	<path d="M48,23.999h-7c-0.553,0-1,0.448-1,1s0.447,1,1,1h7c0.553,0,1-0.448,1-1S48.553,23.999,48,23.999z"/>
	<path d="M14,31.002c1.103,0,2.001-0.897,2.002-2c0,0,0,0,0-0.001v-4.002c0-0.552-0.447-1-1-1s-1,0.448-1,1v0.999H13.5v-0.999
		c0-0.552-0.447-1-1-1s-1,0.448-1,1v0.999h-0.499v-0.999c0-0.552-0.447-1-1-1s-1,0.448-1,1v3.999C9.001,29,9,29.001,9,29.003
		C9,30.104,9.896,31,10.997,31h0.504v7.001c0,0.553,0.447,1,1,1s1-0.447,1-1V31h0.489C13.994,31,13.996,31.002,14,31.002z
		 M14.002,27.998v0.994C14.002,28.995,14,28.997,14,29h-2.999v-1.002H14.002z"/>
	<path d="M17.001,38.001c0,0.553,0.447,1,1,1s1-0.447,1-1v-4.005h2c0.553,0,1-0.447,1-1v-4.994c0-2.205-1.791-3.998-3.994-4.005
		c-0.002,0-0.004-0.001-0.006-0.001c-0.001,0-0.001,0-0.002,0s-0.003,0-0.004,0c-0.553,0-1,0.448-1,1
		c0,0.01,0.006,0.019,0.006,0.029V38.001z M20.001,28.002v3.994h-1v-5.72C19.596,26.625,20.001,27.264,20.001,28.002z"/>
</g>
</svg>
