<?xml version="1.0" encoding="utf-8"?>
<!-- Generator: Adobe Illustrator 16.0.0, SVG Export Plug-In . SVG Version: 6.00 Build 0)  -->
<!DOCTYPE svg PUBLIC "-//W3C//DTD SVG 1.1//EN" "http://www.w3.org/Graphics/SVG/1.1/DTD/svg11.dtd">
<svg version="1.1" id="icons" xmlns="http://www.w3.org/2000/svg" xmlns:xlink="http://www.w3.org/1999/xlink" x="0px" y="0px"
	 width="64px" height="64px" viewBox="0 0 64 64" enable-background="new 0 0 64 64" xml:space="preserve">
<g>
	<path d="M17,48.996h18c0.553,0,1-0.447,1-1v-10c0-0.553-0.447-1-1-1H17c-0.553,0-1,0.447-1,1v10C16,48.549,16.447,48.996,17,48.996
		z M18,38.996h16v8H18V38.996z"/>
	<path d="M61.001,49.996c-0.535,0-1.038,0.141-1.474,0.387c-0.533-0.833-1.467-1.387-2.527-1.387s-1.994,0.554-2.527,1.387
		c-0.436-0.246-0.938-0.387-1.474-0.387c-0.352,0-0.685,0.072-0.999,0.184V34.997h1c0.553,0,1-0.447,1-1v-3
		c0-0.031-0.015-0.059-0.018-0.089c-0.006-0.067-0.02-0.13-0.04-0.195c-0.02-0.066-0.044-0.128-0.076-0.188
		c-0.015-0.027-0.017-0.057-0.034-0.083L52,27.693v-3.697c0-0.553-0.447-1-1-1H32.999v-0.994h1.979c0.007,0,0.013,0.004,0.02,0.004
		s0.013-0.004,0.02-0.004h6.984c0.553,0,1-0.447,1-1V8.004c0-0.553-0.447-1-1-1H21.998c-0.553,0-1,0.447-1,1v12.998
		c0,0.553,0.447,1,1,1h6.479c0.007,0,0.013,0.004,0.02,0.004s0.013-0.004,0.02-0.004h2.483v0.994H13c-0.553,0-1,0.447-1,1v3.697
		l-1.832,2.749c-0.018,0.026-0.02,0.056-0.034,0.083c-0.032,0.06-0.057,0.12-0.076,0.187c-0.02,0.065-0.034,0.129-0.04,0.196
		C10.015,30.939,10,30.966,10,30.997v3c0,0.553,0.447,1,1,1h1v15.147c-0.308-0.09-0.637-0.148-0.999-0.148
		c-0.535,0-1.038,0.141-1.474,0.387C8.994,49.55,8.061,48.996,7,48.996s-1.994,0.554-2.527,1.387
		c-0.436-0.246-0.938-0.387-1.474-0.387c-1.653,0-2.999,1.346-2.999,3v3c0,0.553,0.447,1,1,1h12h26h8h4h12c0.553,0,1-0.447,1-1v-3
		C64,51.174,62.823,49.996,61.001,49.996z M36.997,14.01v1.992h-1v-3.718C36.592,12.633,36.997,13.271,36.997,14.01z M22.998,9.004
		h18.003v10.998h-5.004v-2h2c0.553,0,1-0.447,1-1V14.01c0-2.205-1.791-3.998-3.994-4.005c-0.002,0-0.004-0.001-0.006-0.001
		c-0.001,0-0.001,0-0.002,0s-0.003,0-0.004,0c-0.553,0-1,0.447-1,1c0,0.011,0.006,0.019,0.006,0.029v8.969h-4.501v-2.994h0.489
		c0.004,0,0.007,0.002,0.01,0.002c1.103,0,2.001-0.897,2.002-2v-0.001v-4.002c0-0.553-0.447-1-1-1s-1,0.447-1,1v0.999h-0.502v-0.999
		c0-0.553-0.447-1-1-1s-1,0.447-1,1v0.999h-0.499v-0.999c0-0.553-0.447-1-1-1s-1,0.447-1,1v3.999c0,0.002-0.001,0.003-0.001,0.005
		c0,1.102,0.896,1.997,1.997,1.997h0.504v2.994h-4.498V9.004z M29.997,14.006V15c0,0.003-0.002,0.005-0.002,0.008h-2.999v-1.002
		H29.997z M52.999,51.996c0.553,0,1.002,0.448,1.002,1c0,0.553,0.447,1,1,1s1-0.447,1-1v-1.001c0-0.551,0.448-0.999,0.999-0.999
		s0.999,0.448,0.999,0.999v1.001c0,0.553,0.447,1,1,1s1-0.447,1-1c0-0.552,0.449-1,1.002-1c0.829,0,0.999,0.399,0.999,1v2H52v-2
		C52,52.444,52.448,51.996,52.999,51.996z M12,32.997v-1h40v1H12z M31.965,24.996c0.012,0,0.022,0.007,0.034,0.007
		s0.022-0.007,0.034-0.007H50v2H14v-2H31.965z M13.535,28.996h36.93l0.667,1.001H12.868L13.535,28.996z M2.999,51.996
		c0.553,0,1.002,0.448,1.002,1c0,0.553,0.447,1,1,1s1-0.447,1-1v-1.001c0-0.551,0.448-0.999,0.999-0.999s0.999,0.448,0.999,0.999
		v1.001c0,0.553,0.447,1,1,1s1-0.447,1-1c0-0.552,0.449-1,1.002-1c0.829,0,0.999,0.399,0.999,1v2H2v-2
		C2,52.444,2.448,51.996,2.999,51.996z M14,52.996V34.997h36v17.999v2h-2v-17c0-0.553-0.447-1-1-1h-8c-0.553,0-1,0.447-1,1v17h-2v-2
		c0-0.553-0.447-1-1-1c0-0.553-0.447-1-1-1s-1,0.447-1,1h-2c0-0.553-0.447-1-1-1s-1,0.447-1,1h-2c0-0.553-0.447-1-1-1s-1,0.447-1,1
		h-2c0-0.553-0.447-1-1-1s-1,0.447-1,1h-2c0-0.553-0.447-1-1-1s-1,0.447-1,1c-0.553,0-1,0.447-1,1v2h-2V52.996z M46,45.996h-6v-7h6
		V45.996z M18,53.996h16v1H18V53.996z M40,54.996v-7h6v7H40z"/>
</g>
</svg>
