<?xml version="1.0" encoding="utf-8"?>
<!-- Generator: Adobe Illustrator 16.0.0, SVG Export Plug-In . SVG Version: 6.00 Build 0)  -->
<!DOCTYPE svg PUBLIC "-//W3C//DTD SVG 1.1//EN" "http://www.w3.org/Graphics/SVG/1.1/DTD/svg11.dtd">
<svg version="1.1" id="icons" xmlns="http://www.w3.org/2000/svg" xmlns:xlink="http://www.w3.org/1999/xlink" x="0px" y="0px"
	 width="64px" height="64px" viewBox="0 0 64 64" enable-background="new 0 0 64 64" xml:space="preserve">
<g>
	<path d="M63.928,54.144c-0.011-0.029-0.025-0.055-0.039-0.082c-0.02-0.039-0.032-0.08-0.057-0.116l-10-15
		c-0.019-0.027-0.047-0.042-0.066-0.066c-0.045-0.055-0.092-0.102-0.146-0.146c-0.049-0.039-0.098-0.073-0.152-0.103
		c-0.056-0.03-0.112-0.053-0.175-0.072c-0.065-0.021-0.13-0.033-0.198-0.04C53.062,38.516,53.033,38.5,53,38.5H40.642
		C44.372,33.538,48,27.034,48,20.5c0-8.822-7.178-16-16-16s-16,7.178-16,16c0,6.534,3.628,13.038,7.358,18H11
		c-0.033,0-0.062,0.016-0.094,0.019c-0.069,0.007-0.134,0.021-0.2,0.041c-0.061,0.019-0.116,0.04-0.171,0.07
		c-0.057,0.029-0.106,0.064-0.156,0.105c-0.054,0.043-0.101,0.089-0.144,0.143c-0.021,0.025-0.049,0.04-0.067,0.067l-10,15
		c-0.024,0.036-0.037,0.077-0.057,0.116c-0.014,0.027-0.028,0.053-0.039,0.082c-0.042,0.108-0.066,0.222-0.068,0.337
		C0.004,54.487,0,54.493,0,54.5v4c0,0.553,0.447,1,1,1h62c0.553,0,1-0.447,1-1v-4c0-0.007-0.004-0.013-0.004-0.02
		C63.994,54.365,63.97,54.253,63.928,54.144z M54.781,53.5l-0.953-2h5.971l1.333,2H54.781z M50.967,45.5l-2.383-5h3.881l3.333,5
		H50.967z M32,6.5c7.72,0,14,6.28,14,14c0,10.734-11.144,21.944-14,24.641c-0.291-0.275-0.673-0.644-1.116-1.086
		c-0.094-0.186-0.242-0.334-0.427-0.431C26.365,39.458,18,29.803,18,20.5C18,12.78,24.28,6.5,32,6.5z M41.681,45.5l0.86,3H21.459
		l0.86-3h7.164c1.03,1.02,1.731,1.642,1.857,1.752C31.529,47.417,31.765,47.5,32,47.5s0.471-0.083,0.659-0.248
		c0.126-0.11,0.827-0.732,1.857-1.752H41.681z M27.548,43.5h-5.981c-0.021,0-0.04,0.011-0.062,0.013
		c-0.066,0.004-0.127,0.021-0.189,0.038c-0.064,0.017-0.128,0.031-0.187,0.061c-0.054,0.026-0.099,0.063-0.146,0.099
		c-0.055,0.04-0.108,0.078-0.154,0.128c-0.039,0.044-0.066,0.096-0.098,0.146c-0.038,0.061-0.074,0.119-0.098,0.188
		c-0.007,0.019-0.021,0.032-0.027,0.052l-1.434,5c-0.013,0.046-0.005,0.09-0.011,0.136c-0.007,0.048-0.028,0.09-0.028,0.14
		c0,0.021,0.011,0.039,0.012,0.06c0.005,0.069,0.022,0.133,0.04,0.199c0.018,0.061,0.03,0.121,0.058,0.177s0.065,0.103,0.103,0.152
		c0.04,0.054,0.077,0.105,0.126,0.15c0.044,0.039,0.096,0.066,0.146,0.098c0.061,0.038,0.119,0.074,0.188,0.098
		c0.019,0.007,0.032,0.021,0.052,0.027c0.091,0.026,0.183,0.038,0.273,0.039c0,0,0.001,0,0.002,0h23.734c0.001,0,0.002,0,0.002,0
		c0.091-0.001,0.183-0.013,0.273-0.039c0.02-0.006,0.033-0.021,0.052-0.027c0.069-0.023,0.128-0.06,0.188-0.098
		c0.051-0.031,0.103-0.059,0.146-0.098c0.049-0.045,0.086-0.098,0.126-0.15c0.037-0.05,0.075-0.097,0.103-0.152
		s0.041-0.116,0.058-0.178c0.018-0.065,0.035-0.129,0.04-0.198c0.001-0.021,0.012-0.038,0.012-0.06c0-0.05-0.021-0.092-0.028-0.14
		c-0.006-0.046,0.002-0.09-0.011-0.136l-1.434-5c-0.006-0.02-0.021-0.033-0.027-0.052c-0.023-0.069-0.061-0.129-0.099-0.19
		c-0.031-0.05-0.058-0.101-0.097-0.144c-0.046-0.052-0.101-0.09-0.156-0.131c-0.048-0.034-0.091-0.07-0.144-0.097
		c-0.06-0.029-0.124-0.044-0.19-0.062c-0.062-0.016-0.12-0.033-0.186-0.037c-0.021-0.001-0.04-0.013-0.063-0.013h-5.981
		c0.813-0.876,1.703-1.885,2.618-3h7.299l3.063,6.426c0.047,0.1,0.11,0.184,0.183,0.259c0.023,0.024,0.052,0.042,0.077,0.064
		c0.061,0.052,0.124,0.096,0.194,0.131c0.04,0.021,0.079,0.038,0.122,0.054c0.082,0.028,0.167,0.045,0.255,0.052
		c0.025,0.002,0.048,0.015,0.074,0.015h6.795l1.333,2h-6.221c-0.005,0-0.009,0.003-0.014,0.003
		c-0.085,0.001-0.167,0.027-0.252,0.051c-0.046,0.013-0.096,0.016-0.139,0.035c-0.01,0.004-0.02,0.003-0.028,0.007
		c-0.061,0.029-0.104,0.077-0.155,0.116c-0.045,0.033-0.094,0.06-0.132,0.1c-0.057,0.06-0.095,0.129-0.135,0.199
		c-0.023,0.041-0.054,0.077-0.071,0.121c-0.034,0.086-0.045,0.176-0.054,0.268c-0.004,0.034-0.021,0.064-0.021,0.101
		c0,0.006,0.003,0.01,0.003,0.015c0.001,0.077,0.026,0.151,0.046,0.229c0.015,0.055,0.019,0.112,0.041,0.163
		c0.004,0.008,0.002,0.016,0.006,0.022l1.226,2.571H11.434l4.562-9.569c0.003-0.006,0.002-0.013,0.005-0.019
		c0.031-0.067,0.04-0.144,0.055-0.219c0.012-0.058,0.033-0.112,0.034-0.169c0-0.009,0.005-0.016,0.005-0.024
		c0-0.058-0.023-0.107-0.033-0.163c-0.011-0.065-0.015-0.132-0.039-0.194c-0.025-0.066-0.067-0.121-0.106-0.181
		c-0.031-0.049-0.056-0.1-0.096-0.143c-0.056-0.059-0.124-0.1-0.192-0.144c-0.037-0.024-0.063-0.059-0.104-0.078
		c-0.006-0.003-0.013-0.002-0.019-0.005c-0.063-0.028-0.133-0.035-0.201-0.051c-0.064-0.014-0.127-0.037-0.191-0.038
		c-0.007,0-0.012-0.004-0.019-0.004h-4.892l1.333-2H24.93C25.845,41.615,26.735,42.624,27.548,43.5z M8.868,44.5h4.641l-4.29,9
		H2.868L8.868,44.5z M62,57.5H2v-2h60V57.5z"/>
	<path d="M40,27.502c1.654,0,3-1.346,3-3c0.553,0,1-0.447,1-1s-0.447-1-1-1l0,0c0-5.253-3.703-9.65-8.633-10.736
		C34.446,11.522,34.5,11.269,34.5,11c0-1.379-1.121-2.5-2.5-2.5s-2.5,1.121-2.5,2.5c0,0.269,0.054,0.522,0.133,0.766
		C24.702,12.853,21,17.25,21,22.502l0,0c-0.553,0-1,0.447-1,1s0.447,1,1,1c0,1.654,1.346,3,3,3H40z M40,25.502H24
		c-0.552,0-1-0.448-1-1h18C41,25.054,40.552,25.502,40,25.502z M32,10.5c0.275,0,0.5,0.225,0.5,0.5s-0.225,0.5-0.5,0.5
		s-0.5-0.225-0.5-0.5S31.725,10.5,32,10.5z M32.001,13.502c4.962,0,8.998,4.037,8.999,9h-1v-0.001c0-4.411-3.589-8-8-8
		c-0.553,0-1,0.447-1,1s0.447,1,1,1c3.309,0,6,2.691,6,6v0.001H23C23.001,17.539,27.038,13.502,32.001,13.502z"/>
</g>
</svg>
